{
    "mission": "Presidiare le tematiche relative alla salute e sicurezza sul lavoro e alla tutela dell'ambiente, promuovendo il miglioramento delle performance aziendali, l'adozione di avanzati standard in materia di sicurezza e ambiente relativamente alle attività del business e la diffusione delle normative di riferimento. Curare, per le tematiche di riferimento, la predisposizione di linee guida, procedure e norme operative in accordo con le strutture competenti. In materia di salute e sicurezza sui luoghi di lavoro, supportare per le sedi di Roma, Firenze e relative pertinenze, il Datore di lavoro nell'individuazione dei rischi, nell'elaborazione e nell'attuazione del relativo Documento di Valutazione dei Rischi assicurando gli adempimenti previsti dal modello di organizzazione e gestione della sicurezza. Monitorare il sistema di organizzazione e di gestione per la salute e sicurezza nei luoghi di lavoro della Società, assicurando un adeguato reporting. In tema di formazione e informazione, collazionare le richieste delle Direzioni di Tronco e delle sedi di Roma e Firenze per ottimizzare l'organizzazione delle connesse attività.",
    "responsabile": "Guglielmo DUCCI",
    "gruppo1": [
        "Serena CUSUMANO",
        "Paolo NICASSIO",
        "Aurelia NIGRO",
        "Santina SCOPELLITI"
    ],
    "gruppo2": [
        "Francesca DI BATTISTA",
        "Luca GREGUOL",
        "Marco GROSSI",
        "Cinzia MARIOTTI",
        "Simonetta MAZZETTI",
        "Enrico Mauro MEREU",
        "Cristina SCHIAVI"
    ]
}