{
    "autostrade-italia": [
        {
            "azienda": "Autostrade per l'Italia",
            "ente": "Sede Centrale di Roma",
            "logo": "autostrade-italia"
        },
        {
            "azienda": "Autostrade per l'Italia",
            "ente": "Sede di Firenze",
            "logo": "autostrade-italia"
        },
        {
            "azienda": "Autostrade per l'Italia",
            "ente": "Direzione 1° Tronco - Genova",
            "logo": "autostrade-italia"
        },
        {
            "azienda": "Autostrade per l'Italia",
            "ente": "Direzione 2° Tronco - Milano",
            "logo": "autostrade-italia"
        },
        {
            "azienda": "Autostrade per l'Italia",
            "ente": "Direzione 3° Tronco - Bologna",
            "logo": "autostrade-italia"
        },
        {
            "azienda": "Autostrade per l'Italia",
            "ente": "Direzione 4° Tronco - Firenze",
            "logo": "autostrade-italia"
        },
        {
            "azienda": "Autostrade per l'Italia",
            "ente": "Direzione 5° Tronco - Roma",
            "logo": "autostrade-italia"
        },
        {
            "azienda": "Autostrade per l'Italia",
            "ente": "Direzione 6° Tronco - Cassino",
            "logo": "autostrade-italia"
        },
        {
            "azienda": "Autostrade per l'Italia",
            "ente": "Direzione 7° Tronco - Pescara",
            "logo": "autostrade-italia"
        },
        {
            "azienda": "Autostrade per l'Italia",
            "ente": "Direzione 8° Tronco - Bari",
            "logo": "autostrade-italia"
        },
        {
            "azienda": "Autostrade per l'Italia",
            "ente": "Direzione 9° Tronco - Udine",
            "logo": "autostrade-italia"
        }
    ],
    "autostrade-tech": [
        {
            "azienda": "Autostrade Tech S.p.A",
            "ente": "Sede di Roma",
            "logo": "autostrade-tech"
        },
        {
            "azienda": "Autostrade Tech S.p.A",
            "ente": "Sede di Firenze",
            "logo": "autostrade-tech"
        }
    ],
    "autostrade-service": [
        {
            "azienda": "Autostrade Service",
            "ente": "Sede di Roma",
            "logo": "autostrade-tech"
        },
        {
            "azienda": "Autostrade Service",
            "ente": "Sede di Firenze",
            "logo": "autostrade-tech"
        }
    ],
    "essediesse": [
        {
            "azienda": "Essediesse Soc. di Servizi",
            "ente": "Sede di Roma",
            "logo": "essediesse"
        },
        {
            "azienda": "Essediesse Soc. di Servizi",
            "ente": "Sede di Firenze",
            "logo": "essediesse"
        },
        {
            "azienda": "Essediesse Soc. di Servizi",
            "ente": "Direzione 1° Tronco - Genova",
            "logo": "essediesse"
        },
        {
            "azienda": "Essediesse Soc. di Servizi",
            "ente": "Direzione 2° Tronco - Milano",
            "logo": "essediesse"
        },
        {
            "azienda": "Essediesse Soc. di Servizi",
            "ente": "Direzione 3° Tronco - Bologna",
            "logo": "essediesse"
        },
        {
            "azienda": "Essediesse Soc. di Servizi",
            "ente": "Direzione 4° Tronco - Firenze",
            "logo": "essediesse"
        },
        {
            "azienda": "Essediesse Soc. di Servizi",
            "ente": "Direzione 5° Tronco - Roma",
            "logo": "essediesse"
        },
        {
            "azienda": "Essediesse Soc. di Servizi",
            "ente": "Direzione 6° Tronco - Cassino",
            "logo": "essediesse"
        },
        {
            "azienda": "Essediesse Soc. di Servizi",
            "ente": "Direzione 7° Tronco - Pescara",
            "logo": "essediesse"
        },
        {
            "azienda": "Essediesse Soc. di Servizi",
            "ente": "Direzione 8° Tronco - Bari",
            "logo": "essediesse"
        },
        {
            "azienda": "Essediesse Soc. di Servizi",
            "ente": "Direzione 9° Tronco - Udine",
            "logo": "essediesse"
        }
    ],
    "towerco": [
        {
            "azienda": "TowerCo S.p.A",
            "ente": "Sede di Roma",
            "logo": "towerco"
        },
        {
            "azienda": "TowerCo S.p.A",
            "ente": "Sede di Firenze",
            "logo": "towerco"
        }
    ],
    "telepass": [
        {
            "azienda": "Telepass S.p.A.",
            "ente": "Sede di Roma",
            "logo": "telepass"
        },
        {
            "azienda": "Telepass S.p.A.",
            "ente": "Sede di Firenze",
            "logo": "telepass"
        }
    ],
    "altre": [
        {
            "azienda": "Atlantia S.p.A.",
            "ente": "Sede di Roma",
            "logo": "atlantia"
        }
    ]
}